<?xml version="1.0" encoding="UTF-8" standalone="no"?>
<!-- Uploaded to: SVG Repo, www.svgrepo.com, Generator: SVG Repo Mixer Tools -->

<svg
   width="800px"
   height="800px"
   viewBox="0 0 16 16"
   version="1.1"
   id="svg10"
   sodipodi:docname="tab-new-svgrepo-com.svg"
   inkscape:version="1.2.2 (b0a8486541, 2022-12-01)"
   xmlns:inkscape="http://www.inkscape.org/namespaces/inkscape"
   xmlns:sodipodi="http://sodipodi.sourceforge.net/DTD/sodipodi-0.dtd"
   xmlns="http://www.w3.org/2000/svg"
   xmlns:svg="http://www.w3.org/2000/svg">
  <defs
     id="defs14" />
  <sodipodi:namedview
     id="namedview12"
     pagecolor="#ffffff"
     bordercolor="#000000"
     borderopacity="0.25"
     inkscape:showpageshadow="2"
     inkscape:pageopacity="0.0"
     inkscape:pagecheckerboard="0"
     inkscape:deskcolor="#d1d1d1"
     showgrid="false"
     inkscape:zoom="0.37078912"
     inkscape:cx="99.787179"
     inkscape:cy="547.48101"
     inkscape:window-width="1499"
     inkscape:window-height="749"
     inkscape:window-x="50"
     inkscape:window-y="118"
     inkscape:window-maximized="0"
     inkscape:current-layer="svg10" />
  <g
     fill="#2e3436"
     id="g8"
     transform="matrix(0.8677099,0,0,0.8677099,1.0583208,1.0583208)"
     style="fill:#000000">
    <path
       d="M 3,0 C 1.693437,0.5411961 0.5411961,1.693437 0,3 c -1.2756114,3.0795984 -1.2756114,6.9204016 0,10 0.5411961,1.306563 1.693437,2.458804 3,3 3.0795984,1.275611 6.9204016,1.275611 10,0 1.306563,-0.541196 2.458804,-1.693437 3,-3 C 17.275611,9.9204016 17.275611,6.0795984 16,3 15.458804,1.693437 14.306563,0.5411961 13,0 9.9204016,-1.2756114 6.0795984,-1.2756114 3,0 Z m 0,2 c 3.0795984,-1.27561144 6.9204016,-1.27561144 10,0 0.435521,0.1803987 0.819601,0.564479 1,1 1.275611,3.0795984 1.275611,6.9204016 0,10 -0.180399,0.435521 -0.564479,0.819601 -1,1 C 9.9204016,15.275611 6.0795984,15.275611 3,14 2.564479,13.819601 2.1803987,13.435521 2,13 0.72438856,9.9204016 0.72438856,6.0795984 2,3 2.1803987,2.564479 2.564479,2.1803987 3,2 Z"
       id="path2"
       sodipodi:nodetypes="aaaaaaaaaaaaaaaaaa"
       style="fill:#000000" />
    <path
       d="m 4,7 c 1.1785113,-1.1785113 6.821489,-1.1785113 8,0 1.178511,1.1785113 1.178511,0.8214887 0,2 C 10.821489,10.178511 5.1785113,10.178511 4,9 2.8214887,7.8214887 2.8214887,8.1785113 4,7 Z"
       id="path4"
       style="fill:#000000"
       sodipodi:nodetypes="zzzzz" />
    <path
       d="m 9,4 c 1.178511,1.1785113 1.178511,6.821489 0,8 C 7.8214887,13.178511 8.1785113,13.178511 7,12 5.8214887,10.821489 5.8214887,5.1785113 7,4 8.1785113,2.8214887 7.8214887,2.8214887 9,4 Z"
       id="path6"
       style="fill:#000000"
       sodipodi:nodetypes="zzzzz" />
  </g>
</svg>
